<?xml version="1.0" encoding="utf-8"?>
<!-- Generator: Adobe Illustrator 18.1.1, SVG Export Plug-In . SVG Version: 6.00 Build 0)  -->
<svg version="1.1" id="Layer_1" xmlns="http://www.w3.org/2000/svg" xmlns:xlink="http://www.w3.org/1999/xlink" x="0px" y="0px"
	 width="48px" height="48px" viewBox="0 0 48 48" enable-background="new 0 0 48 48" xml:space="preserve">
<path d="M16.8,16.1H28v3.2v19h3.2V43H16.8v-4.8H20V20.8h-3.2V16.1z M23.9,5c2.2,0,4,1.8,4,4s-1.8,4-4,4s-4-1.8-4-4S21.6,5,23.9,5z"
	/>
</svg>
